%YAML 1.1
%TAG !u! tag:unity3d.com,2011:
--- !u!114 &11400000
MonoBehaviour:
  m_ObjectHideFlags: 1
  m_PrefabParentObject: {fileID: 0}
  m_PrefabInternal: {fileID: 0}
  m_GameObject: {fileID: 0}
  m_Enabled: 1
  m_EditorHideFlags: 0
  m_Script: {fileID: 11500000, guid: 51970d5eb23a13944b71bba45b5e2c36, type: 3}
  m_Name: BehaviorTree 6
  m_EditorClassIdentifier: 
  m_nodes:
  - {fileID: 11422630}
  - {fileID: 11455036}
  m_root: {fileID: 11422630}
--- !u!114 &11422630
MonoBehaviour:
  m_ObjectHideFlags: 1
  m_PrefabParentObject: {fileID: 0}
  m_PrefabInternal: {fileID: 0}
  m_GameObject: {fileID: 0}
  m_Enabled: 1
  m_EditorHideFlags: 0
  m_Script: {fileID: 11500000, guid: 2dd9b819d6ada06448e398ab25241751, type: 3}
  m_Name: Root
  m_EditorClassIdentifier: 
  description: 
  m_detailedDescription: 
  m_pos:
    serializedVersion: 2
    x: 0
    y: 0
    width: 45
    height: 20
  m_parent: {fileID: 0}
  m_children:
  - {fileID: 0}
--- !u!114 &11455036
MonoBehaviour:
  m_ObjectHideFlags: 1
  m_PrefabParentObject: {fileID: 0}
  m_PrefabInternal: {fileID: 0}
  m_GameObject: {fileID: 0}
  m_Enabled: 1
  m_EditorHideFlags: 0
  m_Script: {fileID: 11500000, guid: 33ac230fc05fa4340b030e02aded1969, type: 3}
  m_Name: Repeater
  m_EditorClassIdentifier: 
  description: 
  m_detailedDescription: 
  m_pos:
    serializedVersion: 2
    x: 0
    y: 0
    width: 50
    height: 50
  m_parent: {fileID: 0}
  m_children:
  - {fileID: 0}
  m_type: 0
  m_conditionHolder:
    valueName: 
    valueType: 0
    comparer: 0
    floatVal: 0
    intVal: 0
    boolVal: 0
    watch: 0
  m_repeatNum: 0
